…
  geo_results_df <- bind_rows(geo_results_df, geo_info_row)
}
domain_geo_info_final <- relevant_dns %>%
  left_join(geo_results_df, by = c("destination_ip" = "ip_address")) %>%
  rename(ip_address = destination_ip) %>%
  select(domain = query, ip_address, country, city, isp)
domain_order_factor <- factor(domain_geo_info_final$domain, levels = top_10_domains$query)
domain_geo_info_final_sorted <- domain_geo_info_final %>%
  mutate(domain_order = domain_order_factor) %>%
  arrange(domain_order) %>%
  select(-domain_order)
print(domain_geo_info_final_sorted)
```

    # A tibble: 1,213 × 5
       domain                    ip_address       country       city        isp     
       <chr>                     <chr>            <chr>         <chr>       <chr>   
     1 teredo.ipv6.microsoft.com fec0:0:0:ffff::2 Switzerland   Morat       Interne…
     2 teredo.ipv6.microsoft.com fec0:0:0:ffff::1 Switzerland   Morat       Interne…
     3 teredo.ipv6.microsoft.com fec0:0:0:ffff::3 Switzerland   Morat       Interne…
     4 teredo.ipv6.microsoft.com 192.168.207.4    Internal IP   Internal IP Interna…
     5 teredo.ipv6.microsoft.com 192.168.0.1      Internal IP   Internal IP Interna…
     6 tools.google.com          192.168.207.4    Internal IP   Internal IP Interna…
     7 tools.google.com          192.168.206.44   Internal IP   Internal IP Interna…
     8 tools.google.com          156.154.70.22    United States New York    Neustar…
     9 tools.google.com          8.26.56.26       United States Clifton     Flexent…
    10 tools.google.com          68.87.75.198     United States Pittsburgh  Comcast…
    # ℹ 1,203 more rows
…
