…
``` r
starwars %>%
  filter(height == max(height,na.rm = TRUE)) %>%
  pull(name)
```

    [1] "Yarael Poof"

1.  Найти всех персонажей ниже 170.

``` r
select(starwars, name, height) %>% filter(height>170)
```

    # A tibble: 55 × 2
       name              height
       <chr>              <int>
     1 Luke Skywalker       172
     2 Darth Vader          202
     3 Owen Lars            178
     4 Biggs Darklighter    183
     5 Obi-Wan Kenobi       182
     6 Anakin Skywalker     188
     7 Wilhuff Tarkin       180
     8 Chewbacca            228
     9 Han Solo             180
    10 Greedo               173
    # ℹ 45 more rows

1.  Подсчитать ИМТ (индекс массы тела) для всех персонажей.

``` r
mutate(starwars, BMI=mass/((height/100)^2)) %>% select(name, height, mass, BMI)
```

    # A tibble: 87 × 4
       name               height  mass   BMI
       <chr>               <int> <dbl> <dbl>
     1 Luke Skywalker        172    77  26.0
     2 C-3PO                 167    75  26.9
     3 R2-D2                  96    32  34.7
     4 Darth Vader           202   136  33.3
     5 Leia Organa           150    49  21.8
     6 Owen Lars             178   120  37.9
     7 Beru Whitesun Lars    165    75  27.5
     8 R5-D4                  97    32  34.0
     9 Biggs Darklighter     183    84  25.1
    10 Obi-Wan Kenobi        182    77  23.2
    # ℹ 77 more rows
…
``` r
starwars %>% count(eye_color, sort = TRUE) %>% filter(!is.na(eye_color)) %>% slice(1) %>% pull(eye_color)
```

    [1] "brown"

1.  Подсчитать среднюю длину имени в каждой расе вселенной Звездных
    войн.

``` r
starwars %>% mutate(name_length = nchar(name)) %>% filter(!is.na(species)) %>% group_by(species) %>% summarise(avg_name_length = mean(name_length, na.rm = TRUE),count = n()) %>% arrange(desc(avg_name_length))
```

    # A tibble: 37 × 3
       species   avg_name_length count
       <chr>               <dbl> <int>
     1 Ewok                 21       1
     2 Hutt                 21       1
     3 Geonosian            17       1
     4 Besalisk             15       1
     5 Mirialan             14       2
     6 Toong                14       1
     7 Aleena               12       1
     8 Cerean               12       1
     9 Gungan               11.7     3
    10 Human                11.3    35
    # ℹ 27 more rows
…
